Trying out infer
…
We now go through each of these steps one by one.

specify: What do we want to know?

First of all, we have to clarify what issue we want to test. What variable of our data frame are we interested in? In this blog post we will ask ourselves, whether there was a significant difference between the reported incidence of SARS-Cov-2 cases between Great Britain and the USA. Has one country had on average less new cases (per million) than the other?`

So we filter the data to compare Great Britain and the USA. Then we specify what variables we are interested in. We also declare, what we believe is cause and effect, e. g. the different countries should explain (explanatory), why there is a difference in new cases (response).

data %>% 
  filter(iso_code %in% c("GBR", "USA")) %>% 
  specify(explanatory = iso_code, response = new_cases_per_million )

Response: new_cases_per_million (numeric)
Explanatory: iso_code (factor)
# A tibble: 504 × 2
   new_cases_per_million iso_code
                   <dbl> <fct>   
 1                  848. GBR     
 2                  809. GBR     
 3                  864. GBR     
 4                  896. GBR     
 5                  917. GBR     
 6                  774. GBR     
 7                 1000. GBR     
 8                  881. GBR     
 9                  807. GBR     
10                  678. GBR     
# … with 494 more rows
…
Secondly, we declare the null hypothesis. Statistically speaking, the null hypothesis assumes there truly is no difference (or no correlation). Applied to our example our null hypothesis would be: There is no significant difference in new SARS-Cov2 cases per million people between the US and the UK.

On a side note: We also introduce a new, shorter way of using specify. Keep an eye on which order you place the arguments (i. e. column names) in, because that determines which is used as the dependent or independent variable.

Do not pay a lot of attention on the output our code is generating at this moment. Hopefully, this all comes together shortly. As long as there aren’t any errors and you roughly understand the statistical lingo, we should be fine.

data %>% 
  filter(iso_code %in% c("GBR", "USA")) %>% 
  specify(new_cases_per_million ~ iso_code) %>% 
  hypothesize(null = "independence")

Response: new_cases_per_million (numeric)
Explanatory: iso_code (factor)
Null Hypothesis: independence
# A tibble: 504 × 2
   new_cases_per_million iso_code
                   <dbl> <fct>   
 1                  848. GBR     
 2                  809. GBR     
 3                  864. GBR     
 4                  896. GBR     
 5                  917. GBR     
 6                  774. GBR     
 7                 1000. GBR     
 8                  881. GBR     
 9                  807. GBR     
10                  678. GBR     
# … with 494 more rows

generate: generating the null distribution

Not quite sure what happens here.

data %>% 
  filter(iso_code %in% c("GBR", "USA")) %>% 
  specify(iso_code ~ new_cases_per_million) %>% 
  hypothesize(null = "independence") %>% 
  generate(reps = 1000, type = "permute")

Response: iso_code (factor)
Explanatory: new_cases_per_million (numeric)
Null Hypothesis: independence
# A tibble: 504,000 × 3
# Groups:   replicate [1,000]
   iso_code new_cases_per_million replicate
   <fct>                    <dbl>     <int>
 1 USA                       848.         1
 2 GBR                       809.         1
 3 USA                       864.         1
 4 USA                       896.         1
 5 GBR                       917.         1
 6 GBR                       774.         1
 7 GBR                      1000.         1
 8 GBR                       881.         1
 9 USA                       807.         1
10 USA                       678.         1
# … with 503,990 more rows
…
Let’s use infer to generate some data under the assumption, that in fact, the null hypothesis is true and there genuinely is no significant difference in new cases between both countries. Then we calculate the diff in medians for each replicate of the generated data.

null_dist_sample <- data %>% 
  filter(iso_code %in% c("GBR", "USA")) %>% 
  specify(new_cases_per_million ~ iso_code) %>% 
  hypothesise(null = "independence") %>% 
  generate(rep = 1000, type = "permute")

null_dist_sample

Response: new_cases_per_million (numeric)
Explanatory: iso_code (factor)
Null Hypothesis: independence
# A tibble: 504,000 × 3
# Groups:   replicate [1,000]
   new_cases_per_million iso_code replicate
                   <dbl> <fct>        <int>
 1                  60.3 GBR              1
 2                 485.  GBR              1
 3                 129.  GBR              1
 4                 477.  GBR              1
 5                 529.  GBR              1
 6                 678.  GBR              1
 7                 550.  GBR              1
 8                 522.  GBR              1
 9                  79.3 GBR              1
10                 422.  GBR              1
# … with 503,990 more rows

null_dist_sample <- null_dist_sample %>% 
  calculate(stat = "diff in medians", order = c("GBR", "USA"))

null_dist_sample

Response: new_cases_per_million (numeric)
Explanatory: iso_code (factor)
Null Hypothesis: independence
# A tibble: 1,000 × 2
   replicate      stat
       <int>     <dbl>
 1         1 -16.0    
 2         2  -5.78   
 3         3 -12.6    
 4         4   3.32   
 5         5  -7.91   
 6         6  15.6    
 7         7 -12.5    
 8         8  -3.04   
 9         9  17.0    
10        10  -0.00800
# … with 990 more rows
…
